%YAML 1.1
%TAG !u! tag:unity3d.com,2011:
--- !u!687078895 &4343727234628468602
SpriteAtlas:
  m_ObjectHideFlags: 0
  m_CorrespondingSourceObject: {fileID: 0}
  m_PrefabInstance: {fileID: 0}
  m_PrefabAsset: {fileID: 0}
  m_Name: Mercado
  m_EditorData:
    serializedVersion: 2
    textureSettings:
      serializedVersion: 2
      anisoLevel: 1
      compressionQuality: 50
      maxTextureSize: 2048
      textureCompression: 0
      filterMode: 1
      generateMipMaps: 0
      readable: 0
      crunchedCompression: 0
      sRGB: 1
    platformSettings:
    - serializedVersion: 3
      m_BuildTarget: WebGL
      m_MaxTextureSize: 2048
      m_ResizeAlgorithm: 0
      m_TextureFormat: 29
      m_TextureCompression: 1
      m_CompressionQuality: 50
      m_CrunchedCompression: 0
      m_AllowsAlphaSplitting: 0
      m_Overridden: 1
      m_AndroidETC2FallbackOverride: 0
      m_ForceMaximumCompressionQuality_BC6H_BC7: 0
    packingSettings:
      serializedVersion: 2
      padding: 4
      blockOffset: 1
      allowAlphaSplitting: 0
      enableRotation: 1
      enableTightPacking: 0
    secondaryTextureSettings: {}
    variantMultiplier: 1
    packables:
    - {fileID: 2800000, guid: 9c85de0e5c969644d91767a9f8e67840, type: 3}
    - {fileID: 2800000, guid: 6e1f1c508f65d9a42af6fddb87f855b3, type: 3}
    - {fileID: 2800000, guid: 4ce67075800f0c44590b96f1cf879af7, type: 3}
    - {fileID: 2800000, guid: 06181da14d4070142a5b753d657c643b, type: 3}
    - {fileID: 2800000, guid: 70e1d50e60d4ebe4cbe58f3c429dec3e, type: 3}
    - {fileID: 2800000, guid: 2a953b5894eb62a43bbf627146e5186b, type: 3}
    - {fileID: 21300000, guid: 2a953b5894eb62a43bbf627146e5186b, type: 3}
    totalSpriteSurfaceArea: 3157809
    bindAsDefault: 1
    isAtlasV2: 0
    cachedData: {fileID: 0}
  m_MasterAtlas: {fileID: 0}
  m_PackedSprites:
  - {fileID: 21300000, guid: 6e1f1c508f65d9a42af6fddb87f855b3, type: 3}
  - {fileID: 21300000, guid: 06181da14d4070142a5b753d657c643b, type: 3}
  - {fileID: 21300000, guid: 4ce67075800f0c44590b96f1cf879af7, type: 3}
  - {fileID: 21300000, guid: 2a953b5894eb62a43bbf627146e5186b, type: 3}
  - {fileID: 21300000, guid: 70e1d50e60d4ebe4cbe58f3c429dec3e, type: 3}
  - {fileID: 21300000, guid: 9c85de0e5c969644d91767a9f8e67840, type: 3}
  m_PackedSpriteNamesToIndex:
  - BANNER COMPRA DE PECES-01
  - BANNER DE ERROR
  - BANNER COSTOS BIOMASA COSTO-01-01
  - BOTON DE VENDER
  - BOTOM EXIT-01-01
  - IMPUT PRECIO-01
  m_RenderDataMap: {}
  m_Tag: Mercado
  m_IsVariant: 0
