%YAML 1.1
%TAG !u! tag:unity3d.com,2011:
--- !u!687078895 &4343727234628468602
SpriteAtlas:
  m_ObjectHideFlags: 0
  m_CorrespondingSourceObject: {fileID: 0}
  m_PrefabInstance: {fileID: 0}
  m_PrefabAsset: {fileID: 0}
  m_Name: Gremio
  m_EditorData:
    serializedVersion: 2
    textureSettings:
      serializedVersion: 2
      anisoLevel: 1
      compressionQuality: 50
      maxTextureSize: 2048
      textureCompression: 0
      filterMode: 1
      generateMipMaps: 0
      readable: 0
      crunchedCompression: 0
      sRGB: 1
    platformSettings:
    - serializedVersion: 3
      m_BuildTarget: WebGL
      m_MaxTextureSize: 2048
      m_ResizeAlgorithm: 0
      m_TextureFormat: 29
      m_TextureCompression: 1
      m_CompressionQuality: 50
      m_CrunchedCompression: 0
      m_AllowsAlphaSplitting: 0
      m_Overridden: 1
      m_AndroidETC2FallbackOverride: 0
      m_ForceMaximumCompressionQuality_BC6H_BC7: 0
    packingSettings:
      serializedVersion: 2
      padding: 4
      blockOffset: 1
      allowAlphaSplitting: 0
      enableRotation: 1
      enableTightPacking: 1
    secondaryTextureSettings: {}
    variantMultiplier: 1
    packables:
    - {fileID: 2800000, guid: 1b44f7ca2cdf5e240b905218f6818da2, type: 3}
    - {fileID: 2800000, guid: 01d862d3fb648bb41a0706589e94f829, type: 3}
    - {fileID: 2800000, guid: 1f1eff0744e42e6488fc5c8a335d423e, type: 3}
    - {fileID: 2800000, guid: 1379787ab9737154db40b494f926471f, type: 3}
    - {fileID: 2800000, guid: 502a4a72ad456994fa77dc378cad3eb9, type: 3}
    totalSpriteSurfaceArea: 0
    bindAsDefault: 1
    isAtlasV2: 0
    cachedData: {fileID: 0}
  m_MasterAtlas: {fileID: 0}
  m_PackedSprites: []
  m_PackedSpriteNamesToIndex: []
  m_RenderDataMap: {}
  m_Tag: Gremio
  m_IsVariant: 0
