%YAML 1.1
%TAG !u! tag:unity3d.com,2011:
--- !u!687078895 &4343727234628468602
SpriteAtlas:
  m_ObjectHideFlags: 0
  m_CorrespondingSourceObject: {fileID: 0}
  m_PrefabInstance: {fileID: 0}
  m_PrefabAsset: {fileID: 0}
  m_Name: Instrucciones
  m_EditorData:
    serializedVersion: 2
    textureSettings:
      serializedVersion: 2
      anisoLevel: 1
      compressionQuality: 50
      maxTextureSize: 2048
      textureCompression: 0
      filterMode: 1
      generateMipMaps: 0
      readable: 0
      crunchedCompression: 0
      sRGB: 1
    platformSettings:
    - serializedVersion: 3
      m_BuildTarget: WebGL
      m_MaxTextureSize: 2048
      m_ResizeAlgorithm: 0
      m_TextureFormat: 29
      m_TextureCompression: 1
      m_CompressionQuality: 50
      m_CrunchedCompression: 0
      m_AllowsAlphaSplitting: 0
      m_Overridden: 1
      m_AndroidETC2FallbackOverride: 0
      m_ForceMaximumCompressionQuality_BC6H_BC7: 0
    packingSettings:
      serializedVersion: 2
      padding: 4
      blockOffset: 1
      allowAlphaSplitting: 0
      enableRotation: 1
      enableTightPacking: 0
    secondaryTextureSettings: {}
    variantMultiplier: 1
    packables:
    - {fileID: 2800000, guid: a034d88070e108e458315b85088534c8, type: 3}
    - {fileID: 2800000, guid: 26c5c5fe3c6c8244aa5fd670f2be433e, type: 3}
    - {fileID: 2800000, guid: 32907bedcbdd1f64594e5e1f0e608a5b, type: 3}
    - {fileID: 2800000, guid: 09f6117f2a430ac448b209cf32807225, type: 3}
    - {fileID: 2800000, guid: 9d1f199437267c4438f6f788e40c4b8a, type: 3}
    - {fileID: 2800000, guid: 138a8f414258a9e4a8c99ec4a3c97695, type: 3}
    - {fileID: 2800000, guid: 90f7bd28dd224ef4f8bcf347a5933110, type: 3}
    - {fileID: 2800000, guid: f9f1a40779fff9041a1cf5a3d453898e, type: 3}
    - {fileID: 2800000, guid: 209968153a683a04ba66eff34522556c, type: 3}
    - {fileID: 2800000, guid: 6db6a6e0a3ca252418146234c432bd91, type: 3}
    - {fileID: 2800000, guid: cdbe066897f7a8b4ea1c6cbc7fa9f55d, type: 3}
    totalSpriteSurfaceArea: 5680899
    bindAsDefault: 1
    isAtlasV2: 0
    cachedData: {fileID: 0}
  m_MasterAtlas: {fileID: 0}
  m_PackedSprites:
  - {fileID: 21300000, guid: a034d88070e108e458315b85088534c8, type: 3}
  - {fileID: 21300000, guid: 6db6a6e0a3ca252418146234c432bd91, type: 3}
  - {fileID: 21300000, guid: 138a8f414258a9e4a8c99ec4a3c97695, type: 3}
  - {fileID: 21300000, guid: 9d1f199437267c4438f6f788e40c4b8a, type: 3}
  - {fileID: 21300000, guid: 209968153a683a04ba66eff34522556c, type: 3}
  - {fileID: 21300000, guid: f9f1a40779fff9041a1cf5a3d453898e, type: 3}
  - {fileID: 21300000, guid: 90f7bd28dd224ef4f8bcf347a5933110, type: 3}
  - {fileID: 21300000, guid: cdbe066897f7a8b4ea1c6cbc7fa9f55d, type: 3}
  - {fileID: 21300000, guid: 32907bedcbdd1f64594e5e1f0e608a5b, type: 3}
  - {fileID: 21300000, guid: 26c5c5fe3c6c8244aa5fd670f2be433e, type: 3}
  - {fileID: 21300000, guid: 09f6117f2a430ac448b209cf32807225, type: 3}
  m_PackedSpriteNamesToIndex:
  - ALIMENTO SYMBOL-01
  - SYMBOL FISH-01-01
  - BUTTON-02
  - BUTTON-01
  - MONEY SYMBOL-01
  - LOGO INTERNO TEMPORIZADOR-01
  - ICONO INTERROGANTE-01
  - SYMBOL TEMPERATURE-01-01
  - BANNER DE TEXTO OTRO COLOR-01
  - BANNER DE TEXTO (INSTRUCCIONES)-01
  - BARRA SUPERIOR DE INTERFAZ-01
  m_RenderDataMap: {}
  m_Tag: Instrucciones
  m_IsVariant: 0
