%YAML 1.1
%TAG !u! tag:unity3d.com,2011:
--- !u!687078895 &4343727234628468602
SpriteAtlas:
  m_ObjectHideFlags: 0
  m_CorrespondingSourceObject: {fileID: 0}
  m_PrefabInstance: {fileID: 0}
  m_PrefabAsset: {fileID: 0}
  m_Name: Compra alimento
  m_EditorData:
    serializedVersion: 2
    textureSettings:
      serializedVersion: 2
      anisoLevel: 1
      compressionQuality: 50
      maxTextureSize: 2048
      textureCompression: 0
      filterMode: 1
      generateMipMaps: 0
      readable: 0
      crunchedCompression: 0
      sRGB: 1
    platformSettings:
    - serializedVersion: 3
      m_BuildTarget: WebGL
      m_MaxTextureSize: 2048
      m_ResizeAlgorithm: 0
      m_TextureFormat: 29
      m_TextureCompression: 1
      m_CompressionQuality: 50
      m_CrunchedCompression: 0
      m_AllowsAlphaSplitting: 0
      m_Overridden: 1
      m_AndroidETC2FallbackOverride: 0
      m_ForceMaximumCompressionQuality_BC6H_BC7: 0
    packingSettings:
      serializedVersion: 2
      padding: 4
      blockOffset: 1
      allowAlphaSplitting: 0
      enableRotation: 1
      enableTightPacking: 0
    secondaryTextureSettings: {}
    variantMultiplier: 1
    packables:
    - {fileID: 2800000, guid: ff0648f858c36ba4d8eee12b693eb522, type: 3}
    - {fileID: 2800000, guid: 100192a4e1d9a85459ad56243929a0ee, type: 3}
    - {fileID: 2800000, guid: b1ea128c7ffe9c84ebbe945e18cf7525, type: 3}
    - {fileID: 2800000, guid: 46de6286a3cadd2419d292729f036071, type: 3}
    - {fileID: 2800000, guid: 87bba2a3e04265040a910eb9a2fcb34e, type: 3}
    - {fileID: 2800000, guid: df5a390fd5d62114bb8b326ebba4500c, type: 3}
    - {fileID: 2800000, guid: 407759abd7c0ffb418039a5debad8221, type: 3}
    - {fileID: 2800000, guid: 9d58a8135a29fc0458804d1864a413ac, type: 3}
    - {fileID: 2800000, guid: 2d2bb24b0db05ff458cbbd17b9ff8662, type: 3}
    totalSpriteSurfaceArea: 0
    bindAsDefault: 1
    isAtlasV2: 0
    cachedData: {fileID: 0}
  m_MasterAtlas: {fileID: 0}
  m_PackedSprites: []
  m_PackedSpriteNamesToIndex: []
  m_RenderDataMap: {}
  m_Tag: Compra alimento
  m_IsVariant: 0
