%YAML 1.1
%TAG !u! tag:unity3d.com,2011:
--- !u!74 &7400000
AnimationClip:
  m_ObjectHideFlags: 0
  m_PrefabParentObject: {fileID: 0}
  m_PrefabInternal: {fileID: 0}
  m_Name: Intro2Anim
  serializedVersion: 6
  m_Legacy: 1
  m_Compressed: 0
  m_UseHighQualityCurve: 1
  m_RotationCurves:
  - curve:
      serializedVersion: 2
      m_Curve:
      - serializedVersion: 2
        time: 0
        value: {x: 0.17313361, y: -0.17855284, z: 0.03193373, w: 0.96805155}
        inSlope: {x: -0.0016289949, y: -0.0070560724, z: 0.0009939447, w: -0.0010484457}
        outSlope: {x: -0.0016289949, y: -0.0070560724, z: 0.0009939447, w: -0.0010484457}
        tangentMode: 0
      - serializedVersion: 2
        time: 0.2
        value: {x: 0.17280781, y: -0.17996405, z: 0.032132518, w: 0.96784186}
        inSlope: {x: -0.0031719357, y: -0.013721921, z: 0.0019210111, w: -0.0020694733}
        outSlope: {x: -0.0031719357, y: -0.013721921, z: 0.0019210111, w: -0.0020694733}
        tangentMode: 0
      - serializedVersion: 2
        time: 0.4
        value: {x: 0.17186484, y: -0.1840416, z: 0.032702133, w: 0.96722376}
        inSlope: {x: -0.0061320886, y: -0.026463902, z: 0.0036603583, w: -0.004106015}
        outSlope: {x: -0.0061320886, y: -0.026463902, z: 0.0036603583, w: -0.004106015}
        tangentMode: 0
      - serializedVersion: 2
        time: 0.6
        value: {x: 0.17035498, y: -0.19054961, z: 0.03359666, w: 0.96619946}
        inSlope: {x: -0.008843914, y: -0.038020946, z: 0.0051556528, w: -0.0061659515}
        outSlope: {x: -0.008843914, y: -0.038020946, z: 0.0051556528, w: -0.0061659515}
        tangentMode: 0
      - serializedVersion: 2
        time: 0.8
        value: {x: 0.16832727, y: -0.19924998, z: 0.034764394, w: 0.9647574}
        inSlope: {x: -0.011310914, y: -0.04838262, z: 0.0063839746, w: -0.008303375}
        outSlope: {x: -0.011310914, y: -0.04838262, z: 0.0063839746, w: -0.008303375}
        tangentMode: 0
      - serializedVersion: 2
        time: 1
        value: {x: 0.16583061, y: -0.20990266, z: 0.03615025, w: 0.9628781}
        inSlope: {x: -0.013532599, y: -0.05753982, z: 0.00733368, w: -0.010545402}
        outSlope: {x: -0.013532599, y: -0.05753982, z: 0.00733368, w: -0.010545402}
        tangentMode: 0
      - serializedVersion: 2
        time: 1.2
        value: {x: 0.16291423, y: -0.22226591, z: 0.037697867, w: 0.9605392}
        inSlope: {x: -0.015505288, y: -0.065485, z: 0.00800317, w: -0.01289412}
        outSlope: {x: -0.015505288, y: -0.065485, z: 0.00800317, w: -0.01289412}
        tangentMode: 0
      - serializedVersion: 2
        time: 1.4000001
        value: {x: 0.1596285, y: -0.23609667, z: 0.03935152, w: 0.95772046}
        inSlope: {x: -0.017222386, y: -0.07221239, z: 0.008399857, w: -0.015329417}
        outSlope: {x: -0.017222386, y: -0.07221239, z: 0.008399857, w: -0.015329417}
        tangentMode: 0
      - serializedVersion: 2
        time: 1.6000001
        value: {x: 0.15602528, y: -0.25115088, z: 0.04105781, w: 0.95440745}
        inSlope: {x: -0.018675882, y: -0.07771903, z: 0.008539109, w: -0.017812844}
        outSlope: {x: -0.018675882, y: -0.07771903, z: 0.008539109, w: -0.017812844}
        tangentMode: 0
      - serializedVersion: 2
        time: 1.8000002
        value: {x: 0.15215814, y: -0.2671843, z: 0.042767163, w: 0.9505953}
        inSlope: {x: -0.019857135, y: -0.08200606, z: 0.008443043, w: -0.020289864}
        outSlope: {x: -0.019857135, y: -0.08200606, z: 0.008443043, w: -0.020289864}
        tangentMode: 0
      - serializedVersion: 2
        time: 2.0000002
        value: {x: 0.14808242, y: -0.2839533, z: 0.044435028, w: 0.9462915}
        inSlope: {x: -0.020757573, y: -0.085078605, z: 0.008139394, w: -0.022692526}
        outSlope: {x: -0.020757573, y: -0.085078605, z: 0.008139394, w: -0.022692526}
        tangentMode: 0
      - serializedVersion: 2
        time: 2.2000003
        value: {x: 0.14385511, y: -0.30121574, z: 0.04602292, w: 0.9415183}
        inSlope: {x: -0.02136975, y: -0.086946614, z: 0.0076602846, w: -0.024943793}
        outSlope: {x: -0.02136975, y: -0.086946614, z: 0.0076602846, w: -0.024943793}
        tangentMode: 0
      - serializedVersion: 2
        time: 2.4000003
        value: {x: 0.13953452, y: -0.31873196, z: 0.047499143, w: 0.936314}
        inSlope: {x: -0.021688076, y: -0.08762581, z: 0.007040946, w: -0.026960216}
        outSlope: {x: -0.021688076, y: -0.08762581, z: 0.007040946, w: -0.026960216}
        tangentMode: 0
      - serializedVersion: 2
        time: 2.6000004
        value: {x: 0.13517988, y: -0.33626607, z: 0.0488393, w: 0.9307342}
        inSlope: {x: -0.021709124, y: -0.08713698, z: 0.006318417, w: -0.02865418}
        outSlope: {x: -0.021709124, y: -0.08713698, z: 0.006318417, w: -0.02865418}
        tangentMode: 0
      - serializedVersion: 2
        time: 2.8000004
        value: {x: 0.13085087, y: -0.35358676, z: 0.05002651, w: 0.9248523}
        inSlope: {x: -0.021431739, y: -0.08550485, z: 0.0055302014, w: -0.029938363}
        outSlope: {x: -0.021431739, y: -0.08550485, z: 0.0055302014, w: -0.029938363}
        tangentMode: 0
      - serializedVersion: 2
        time: 3.0000005
        value: {x: 0.12660718, y: -0.37046802, z: 0.051051382, w: 0.91875887}
        inSlope: {x: -0.020857504, y: -0.08275842, z: 0.0047129383, w: -0.030728124}
        outSlope: {x: -0.020857504, y: -0.08275842, z: 0.0047129383, w: -0.030728124}
        tangentMode: 0
      - serializedVersion: 2
        time: 3.2000005
        value: {x: 0.12250786, y: -0.38669014, z: 0.051911686, w: 0.91256106}
        inSlope: {x: -0.019990072, y: -0.0789298, z: 0.003901207, w: -0.030943595}
        outSlope: {x: -0.019990072, y: -0.0789298, z: 0.003901207, w: -0.030943595}
        tangentMode: 0
      - serializedVersion: 2
        time: 3.4000006
        value: {x: 0.11861115, y: -0.40203995, z: 0.052611865, w: 0.9063814}
        inSlope: {x: -0.01883499, y: -0.07405168, z: 0.0031262347, w: -0.030513696}
        outSlope: {x: -0.01883499, y: -0.07405168, z: 0.0031262347, w: -0.030513696}
        tangentMode: 0
      - serializedVersion: 2
        time: 3.6000006
        value: {x: 0.114973865, y: -0.41631082, z: 0.05316218, w: 0.9003556}
        inSlope: {x: -0.017399114, y: -0.06815529, z: 0.0024145744, w: -0.029378228}
        outSlope: {x: -0.017399114, y: -0.06815529, z: 0.0024145744, w: -0.029378228}
        tangentMode: 0
      - serializedVersion: 2
        time: 3.8000007
        value: {x: 0.1116515, y: -0.42930207, z: 0.053577695, w: 0.89463013}
        inSlope: {x: -0.015689624, y: -0.061269723, z: 0.0017872644, w: -0.027489223}
        outSlope: {x: -0.015689624, y: -0.061269723, z: 0.0017872644, w: -0.027489223}
        tangentMode: 0
      - serializedVersion: 2
        time: 4.0000005
        value: {x: 0.10869802, y: -0.4408187, z: 0.053877085, w: 0.8893599}
        inSlope: {x: -0.013713701, y: -0.05341818, z: 0.0012585346, w: -0.024815373}
        outSlope: {x: -0.013713701, y: -0.05341818, z: 0.0012585346, w: -0.024815373}
        tangentMode: 0
      - serializedVersion: 2
        time: 4.2000003
        value: {x: 0.10616603, y: -0.45066932, z: 0.05408111, w: 0.884704}
        inSlope: {x: -0.011477016, y: -0.044616133, z: 0.0008349408, w: -0.021342358}
        outSlope: {x: -0.011477016, y: -0.044616133, z: 0.0008349408, w: -0.021342358}
        tangentMode: 0
      - serializedVersion: 2
        time: 4.4
        value: {x: 0.104107216, y: -0.45866513, z: 0.05421106, w: 0.88082296}
        inSlope: {x: -0.008983398, y: -0.03486957, z: 0.00051437924, w: -0.017075108}
        outSlope: {x: -0.008983398, y: -0.03486957, z: 0.00051437924, w: -0.017075108}
        tangentMode: 0
      - serializedVersion: 2
        time: 4.6
        value: {x: 0.10257267, y: -0.46461713, z: 0.05428686, w: 0.87787396}
        inSlope: {x: -0.006233888, y: -0.024171345, z: 0.0002850129, w: -0.01204164}
        outSlope: {x: -0.006233888, y: -0.024171345, z: 0.0002850129, w: -0.01204164}
        tangentMode: 0
      - serializedVersion: 2
        time: 4.7999997
        value: {x: 0.10161366, y: -0.46833366, z: 0.054325067, w: 0.8760063}
        inSlope: {x: -0.0032262143, y: -0.012501408, z: 0.00012440613, w: -0.006294253}
        outSlope: {x: -0.0032262143, y: -0.012501408, z: 0.00012440613, w: -0.006294253}
        tangentMode: 0
      - serializedVersion: 2
        time: 5
        value: {x: 0.10128219, y: -0.4696177, z: 0.054336622, w: 0.87535626}
        inSlope: {x: -0.0016573793, y: -0.006420156, z: 0.00005777917, w: -0.0032502366}
        outSlope: {x: -0.0016573793, y: -0.006420156, z: 0.00005777917, w: -0.0032502366}
        tangentMode: 0
      m_PreInfinity: 2
      m_PostInfinity: 2
      m_RotationOrder: 4
    path: 
  m_CompressedRotationCurves: []
  m_EulerCurves: []
  m_PositionCurves:
  - curve:
      serializedVersion: 2
      m_Curve:
      - serializedVersion: 2
        time: 0
        value: {x: -35.01, y: 15.985, z: -23.65}
        inSlope: {x: 0, y: 0, z: 0}
        outSlope: {x: 0, y: 0, z: 0}
        tangentMode: 0
      - serializedVersion: 2
        time: 5
        value: {x: -36.934, y: 15.217, z: -20.479}
        inSlope: {x: 0, y: 0, z: 0}
        outSlope: {x: 0, y: 0, z: 0}
        tangentMode: 0
      m_PreInfinity: 2
      m_PostInfinity: 2
      m_RotationOrder: 4
    path: 
  m_ScaleCurves: []
  m_FloatCurves: []
  m_PPtrCurves: []
  m_SampleRate: 5
  m_WrapMode: 0
  m_Bounds:
    m_Center: {x: 0, y: 0, z: 0}
    m_Extent: {x: 0, y: 0, z: 0}
  m_ClipBindingConstant:
    genericBindings: []
    pptrCurveMapping: []
  m_AnimationClipSettings:
    serializedVersion: 2
    m_AdditiveReferencePoseClip: {fileID: 0}
    m_AdditiveReferencePoseTime: 0
    m_StartTime: 0
    m_StopTime: 5
    m_OrientationOffsetY: 0
    m_Level: 0
    m_CycleOffset: 0
    m_HasAdditiveReferencePose: 0
    m_LoopTime: 1
    m_LoopBlend: 0
    m_LoopBlendOrientation: 0
    m_LoopBlendPositionY: 0
    m_LoopBlendPositionXZ: 0
    m_KeepOriginalOrientation: 0
    m_KeepOriginalPositionY: 1
    m_KeepOriginalPositionXZ: 0
    m_HeightFromFeet: 0
    m_Mirror: 0
  m_EditorCurves:
  - curve:
      serializedVersion: 2
      m_Curve:
      - serializedVersion: 2
        time: 0
        value: -35.01
        inSlope: 0
        outSlope: 0
        tangentMode: 136
      - serializedVersion: 2
        time: 5
        value: -36.934
        inSlope: 0
        outSlope: 0
        tangentMode: 136
      m_PreInfinity: 2
      m_PostInfinity: 2
      m_RotationOrder: 4
    attribute: m_LocalPosition.x
    path: 
    classID: 4
    script: {fileID: 0}
  - curve:
      serializedVersion: 2
      m_Curve:
      - serializedVersion: 2
        time: 0
        value: 15.985
        inSlope: 0
        outSlope: 0
        tangentMode: 136
      - serializedVersion: 2
        time: 5
        value: 15.217
        inSlope: 0
        outSlope: 0
        tangentMode: 136
      m_PreInfinity: 2
      m_PostInfinity: 2
      m_RotationOrder: 4
    attribute: m_LocalPosition.y
    path: 
    classID: 4
    script: {fileID: 0}
  - curve:
      serializedVersion: 2
      m_Curve:
      - serializedVersion: 2
        time: 0
        value: -23.65
        inSlope: 0
        outSlope: 0
        tangentMode: 136
      - serializedVersion: 2
        time: 5
        value: -20.479
        inSlope: 0
        outSlope: 0
        tangentMode: 136
      m_PreInfinity: 2
      m_PostInfinity: 2
      m_RotationOrder: 4
    attribute: m_LocalPosition.z
    path: 
    classID: 4
    script: {fileID: 0}
  - curve:
      serializedVersion: 2
      m_Curve:
      - serializedVersion: 2
        time: 0
        value: 0.17313361
        inSlope: -0.0016289949
        outSlope: -0.0016289949
        tangentMode: 0
      - serializedVersion: 2
        time: 0.2
        value: 0.17280781
        inSlope: -0.0031719357
        outSlope: -0.0031719357
        tangentMode: 0
      - serializedVersion: 2
        time: 0.4
        value: 0.17186484
        inSlope: -0.0061320886
        outSlope: -0.0061320886
        tangentMode: 0
      - serializedVersion: 2
        time: 0.6
        value: 0.17035498
        inSlope: -0.008843914
        outSlope: -0.008843914
        tangentMode: 0
      - serializedVersion: 2
        time: 0.8
        value: 0.16832727
        inSlope: -0.011310914
        outSlope: -0.011310914
        tangentMode: 0
      - serializedVersion: 2
        time: 1
        value: 0.16583061
        inSlope: -0.013532599
        outSlope: -0.013532599
        tangentMode: 0
      - serializedVersion: 2
        time: 1.2
        value: 0.16291423
        inSlope: -0.015505288
        outSlope: -0.015505288
        tangentMode: 0
      - serializedVersion: 2
        time: 1.4000001
        value: 0.1596285
        inSlope: -0.017222386
        outSlope: -0.017222386
        tangentMode: 0
      - serializedVersion: 2
        time: 1.6000001
        value: 0.15602528
        inSlope: -0.018675882
        outSlope: -0.018675882
        tangentMode: 0
      - serializedVersion: 2
        time: 1.8000002
        value: 0.15215814
        inSlope: -0.019857135
        outSlope: -0.019857135
        tangentMode: 0
      - serializedVersion: 2
        time: 2.0000002
        value: 0.14808242
        inSlope: -0.020757573
        outSlope: -0.020757573
        tangentMode: 0
      - serializedVersion: 2
        time: 2.2000003
        value: 0.14385511
        inSlope: -0.02136975
        outSlope: -0.02136975
        tangentMode: 0
      - serializedVersion: 2
        time: 2.4000003
        value: 0.13953452
        inSlope: -0.021688076
        outSlope: -0.021688076
        tangentMode: 0
      - serializedVersion: 2
        time: 2.6000004
        value: 0.13517988
        inSlope: -0.021709124
        outSlope: -0.021709124
        tangentMode: 0
      - serializedVersion: 2
        time: 2.8000004
        value: 0.13085087
        inSlope: -0.021431739
        outSlope: -0.021431739
        tangentMode: 0
      - serializedVersion: 2
        time: 3.0000005
        value: 0.12660718
        inSlope: -0.020857504
        outSlope: -0.020857504
        tangentMode: 0
      - serializedVersion: 2
        time: 3.2000005
        value: 0.12250786
        inSlope: -0.019990072
        outSlope: -0.019990072
        tangentMode: 0
      - serializedVersion: 2
        time: 3.4000006
        value: 0.11861115
        inSlope: -0.01883499
        outSlope: -0.01883499
        tangentMode: 0
      - serializedVersion: 2
        time: 3.6000006
        value: 0.114973865
        inSlope: -0.017399114
        outSlope: -0.017399114
        tangentMode: 0
      - serializedVersion: 2
        time: 3.8000007
        value: 0.1116515
        inSlope: -0.015689624
        outSlope: -0.015689624
        tangentMode: 0
      - serializedVersion: 2
        time: 4.0000005
        value: 0.10869802
        inSlope: -0.013713701
        outSlope: -0.013713701
        tangentMode: 0
      - serializedVersion: 2
        time: 4.2000003
        value: 0.10616603
        inSlope: -0.011477016
        outSlope: -0.011477016
        tangentMode: 0
      - serializedVersion: 2
        time: 4.4
        value: 0.104107216
        inSlope: -0.008983398
        outSlope: -0.008983398
        tangentMode: 0
      - serializedVersion: 2
        time: 4.6
        value: 0.10257267
        inSlope: -0.006233888
        outSlope: -0.006233888
        tangentMode: 0
      - serializedVersion: 2
        time: 4.7999997
        value: 0.10161366
        inSlope: -0.0032262143
        outSlope: -0.0032262143
        tangentMode: 0
      - serializedVersion: 2
        time: 5
        value: 0.10128219
        inSlope: -0.0016573793
        outSlope: -0.0016573793
        tangentMode: 0
      m_PreInfinity: 2
      m_PostInfinity: 2
      m_RotationOrder: 4
    attribute: m_LocalRotation.x
    path: 
    classID: 4
    script: {fileID: 0}
  - curve:
      serializedVersion: 2
      m_Curve:
      - serializedVersion: 2
        time: 0
        value: -0.17855284
        inSlope: -0.0070560724
        outSlope: -0.0070560724
        tangentMode: 0
      - serializedVersion: 2
        time: 0.2
        value: -0.17996405
        inSlope: -0.013721921
        outSlope: -0.013721921
        tangentMode: 0
      - serializedVersion: 2
        time: 0.4
        value: -0.1840416
        inSlope: -0.026463902
        outSlope: -0.026463902
        tangentMode: 0
      - serializedVersion: 2
        time: 0.6
        value: -0.19054961
        inSlope: -0.038020946
        outSlope: -0.038020946
        tangentMode: 0
      - serializedVersion: 2
        time: 0.8
        value: -0.19924998
        inSlope: -0.04838262
        outSlope: -0.04838262
        tangentMode: 0
      - serializedVersion: 2
        time: 1
        value: -0.20990266
        inSlope: -0.05753982
        outSlope: -0.05753982
        tangentMode: 0
      - serializedVersion: 2
        time: 1.2
        value: -0.22226591
        inSlope: -0.065485
        outSlope: -0.065485
        tangentMode: 0
      - serializedVersion: 2
        time: 1.4000001
        value: -0.23609667
        inSlope: -0.07221239
        outSlope: -0.07221239
        tangentMode: 0
      - serializedVersion: 2
        time: 1.6000001
        value: -0.25115088
        inSlope: -0.07771903
        outSlope: -0.07771903
        tangentMode: 0
      - serializedVersion: 2
        time: 1.8000002
        value: -0.2671843
        inSlope: -0.08200606
        outSlope: -0.08200606
        tangentMode: 0
      - serializedVersion: 2
        time: 2.0000002
        value: -0.2839533
        inSlope: -0.085078605
        outSlope: -0.085078605
        tangentMode: 0
      - serializedVersion: 2
        time: 2.2000003
        value: -0.30121574
        inSlope: -0.086946614
        outSlope: -0.086946614
        tangentMode: 0
      - serializedVersion: 2
        time: 2.4000003
        value: -0.31873196
        inSlope: -0.08762581
        outSlope: -0.08762581
        tangentMode: 0
      - serializedVersion: 2
        time: 2.6000004
        value: -0.33626607
        inSlope: -0.08713698
        outSlope: -0.08713698
        tangentMode: 0
      - serializedVersion: 2
        time: 2.8000004
        value: -0.35358676
        inSlope: -0.08550485
        outSlope: -0.08550485
        tangentMode: 0
      - serializedVersion: 2
        time: 3.0000005
        value: -0.37046802
        inSlope: -0.08275842
        outSlope: -0.08275842
        tangentMode: 0
      - serializedVersion: 2
        time: 3.2000005
        value: -0.38669014
        inSlope: -0.0789298
        outSlope: -0.0789298
        tangentMode: 0
      - serializedVersion: 2
        time: 3.4000006
        value: -0.40203995
        inSlope: -0.07405168
        outSlope: -0.07405168
        tangentMode: 0
      - serializedVersion: 2
        time: 3.6000006
        value: -0.41631082
        inSlope: -0.06815529
        outSlope: -0.06815529
        tangentMode: 0
      - serializedVersion: 2
        time: 3.8000007
        value: -0.42930207
        inSlope: -0.061269723
        outSlope: -0.061269723
        tangentMode: 0
      - serializedVersion: 2
        time: 4.0000005
        value: -0.4408187
        inSlope: -0.05341818
        outSlope: -0.05341818
        tangentMode: 0
      - serializedVersion: 2
        time: 4.2000003
        value: -0.45066932
        inSlope: -0.044616133
        outSlope: -0.044616133
        tangentMode: 0
      - serializedVersion: 2
        time: 4.4
        value: -0.45866513
        inSlope: -0.03486957
        outSlope: -0.03486957
        tangentMode: 0
      - serializedVersion: 2
        time: 4.6
        value: -0.46461713
        inSlope: -0.024171345
        outSlope: -0.024171345
        tangentMode: 0
      - serializedVersion: 2
        time: 4.7999997
        value: -0.46833366
        inSlope: -0.012501408
        outSlope: -0.012501408
        tangentMode: 0
      - serializedVersion: 2
        time: 5
        value: -0.4696177
        inSlope: -0.006420156
        outSlope: -0.006420156
        tangentMode: 0
      m_PreInfinity: 2
      m_PostInfinity: 2
      m_RotationOrder: 4
    attribute: m_LocalRotation.y
    path: 
    classID: 4
    script: {fileID: 0}
  - curve:
      serializedVersion: 2
      m_Curve:
      - serializedVersion: 2
        time: 0
        value: 0.03193373
        inSlope: 0.0009939447
        outSlope: 0.0009939447
        tangentMode: 0
      - serializedVersion: 2
        time: 0.2
        value: 0.032132518
        inSlope: 0.0019210111
        outSlope: 0.0019210111
        tangentMode: 0
      - serializedVersion: 2
        time: 0.4
        value: 0.032702133
        inSlope: 0.0036603583
        outSlope: 0.0036603583
        tangentMode: 0
      - serializedVersion: 2
        time: 0.6
        value: 0.03359666
        inSlope: 0.0051556528
        outSlope: 0.0051556528
        tangentMode: 0
      - serializedVersion: 2
        time: 0.8
        value: 0.034764394
        inSlope: 0.0063839746
        outSlope: 0.0063839746
        tangentMode: 0
      - serializedVersion: 2
        time: 1
        value: 0.03615025
        inSlope: 0.00733368
        outSlope: 0.00733368
        tangentMode: 0
      - serializedVersion: 2
        time: 1.2
        value: 0.037697867
        inSlope: 0.00800317
        outSlope: 0.00800317
        tangentMode: 0
      - serializedVersion: 2
        time: 1.4000001
        value: 0.03935152
        inSlope: 0.008399857
        outSlope: 0.008399857
        tangentMode: 0
      - serializedVersion: 2
        time: 1.6000001
        value: 0.04105781
        inSlope: 0.008539109
        outSlope: 0.008539109
        tangentMode: 0
      - serializedVersion: 2
        time: 1.8000002
        value: 0.042767163
        inSlope: 0.008443043
        outSlope: 0.008443043
        tangentMode: 0
      - serializedVersion: 2
        time: 2.0000002
        value: 0.044435028
        inSlope: 0.008139394
        outSlope: 0.008139394
        tangentMode: 0
      - serializedVersion: 2
        time: 2.2000003
        value: 0.04602292
        inSlope: 0.0076602846
        outSlope: 0.0076602846
        tangentMode: 0
      - serializedVersion: 2
        time: 2.4000003
        value: 0.047499143
        inSlope: 0.007040946
        outSlope: 0.007040946
        tangentMode: 0
      - serializedVersion: 2
        time: 2.6000004
        value: 0.0488393
        inSlope: 0.006318417
        outSlope: 0.006318417
        tangentMode: 0
      - serializedVersion: 2
        time: 2.8000004
        value: 0.05002651
        inSlope: 0.0055302014
        outSlope: 0.0055302014
        tangentMode: 0
      - serializedVersion: 2
        time: 3.0000005
        value: 0.051051382
        inSlope: 0.0047129383
        outSlope: 0.0047129383
        tangentMode: 0
      - serializedVersion: 2
        time: 3.2000005
        value: 0.051911686
        inSlope: 0.003901207
        outSlope: 0.003901207
        tangentMode: 0
      - serializedVersion: 2
        time: 3.4000006
        value: 0.052611865
        inSlope: 0.0031262347
        outSlope: 0.0031262347
        tangentMode: 0
      - serializedVersion: 2
        time: 3.6000006
        value: 0.05316218
        inSlope: 0.0024145744
        outSlope: 0.0024145744
        tangentMode: 0
      - serializedVersion: 2
        time: 3.8000007
        value: 0.053577695
        inSlope: 0.0017872644
        outSlope: 0.0017872644
        tangentMode: 0
      - serializedVersion: 2
        time: 4.0000005
        value: 0.053877085
        inSlope: 0.0012585346
        outSlope: 0.0012585346
        tangentMode: 0
      - serializedVersion: 2
        time: 4.2000003
        value: 0.05408111
        inSlope: 0.0008349408
        outSlope: 0.0008349408
        tangentMode: 0
      - serializedVersion: 2
        time: 4.4
        value: 0.05421106
        inSlope: 0.00051437924
        outSlope: 0.00051437924
        tangentMode: 0
      - serializedVersion: 2
        time: 4.6
        value: 0.05428686
        inSlope: 0.0002850129
        outSlope: 0.0002850129
        tangentMode: 0
      - serializedVersion: 2
        time: 4.7999997
        value: 0.054325067
        inSlope: 0.00012440613
        outSlope: 0.00012440613
        tangentMode: 0
      - serializedVersion: 2
        time: 5
        value: 0.054336622
        inSlope: 0.00005777917
        outSlope: 0.00005777917
        tangentMode: 0
      m_PreInfinity: 2
      m_PostInfinity: 2
      m_RotationOrder: 4
    attribute: m_LocalRotation.z
    path: 
    classID: 4
    script: {fileID: 0}
  - curve:
      serializedVersion: 2
      m_Curve:
      - serializedVersion: 2
        time: 0
        value: 0.96805155
        inSlope: -0.0010484457
        outSlope: -0.0010484457
        tangentMode: 0
      - serializedVersion: 2
        time: 0.2
        value: 0.96784186
        inSlope: -0.0020694733
        outSlope: -0.0020694733
        tangentMode: 0
      - serializedVersion: 2
        time: 0.4
        value: 0.96722376
        inSlope: -0.004106015
        outSlope: -0.004106015
        tangentMode: 0
      - serializedVersion: 2
        time: 0.6
        value: 0.96619946
        inSlope: -0.0061659515
        outSlope: -0.0061659515
        tangentMode: 0
      - serializedVersion: 2
        time: 0.8
        value: 0.9647574
        inSlope: -0.008303375
        outSlope: -0.008303375
        tangentMode: 0
      - serializedVersion: 2
        time: 1
        value: 0.9628781
        inSlope: -0.010545402
        outSlope: -0.010545402
        tangentMode: 0
      - serializedVersion: 2
        time: 1.2
        value: 0.9605392
        inSlope: -0.01289412
        outSlope: -0.01289412
        tangentMode: 0
      - serializedVersion: 2
        time: 1.4000001
        value: 0.95772046
        inSlope: -0.015329417
        outSlope: -0.015329417
        tangentMode: 0
      - serializedVersion: 2
        time: 1.6000001
        value: 0.95440745
        inSlope: -0.017812844
        outSlope: -0.017812844
        tangentMode: 0
      - serializedVersion: 2
        time: 1.8000002
        value: 0.9505953
        inSlope: -0.020289864
        outSlope: -0.020289864
        tangentMode: 0
      - serializedVersion: 2
        time: 2.0000002
        value: 0.9462915
        inSlope: -0.022692526
        outSlope: -0.022692526
        tangentMode: 0
      - serializedVersion: 2
        time: 2.2000003
        value: 0.9415183
        inSlope: -0.024943793
        outSlope: -0.024943793
        tangentMode: 0
      - serializedVersion: 2
        time: 2.4000003
        value: 0.936314
        inSlope: -0.026960216
        outSlope: -0.026960216
        tangentMode: 0
      - serializedVersion: 2
        time: 2.6000004
        value: 0.9307342
        inSlope: -0.02865418
        outSlope: -0.02865418
        tangentMode: 0
      - serializedVersion: 2
        time: 2.8000004
        value: 0.9248523
        inSlope: -0.029938363
        outSlope: -0.029938363
        tangentMode: 0
      - serializedVersion: 2
        time: 3.0000005
        value: 0.91875887
        inSlope: -0.030728124
        outSlope: -0.030728124
        tangentMode: 0
      - serializedVersion: 2
        time: 3.2000005
        value: 0.91256106
        inSlope: -0.030943595
        outSlope: -0.030943595
        tangentMode: 0
      - serializedVersion: 2
        time: 3.4000006
        value: 0.9063814
        inSlope: -0.030513696
        outSlope: -0.030513696
        tangentMode: 0
      - serializedVersion: 2
        time: 3.6000006
        value: 0.9003556
        inSlope: -0.029378228
        outSlope: -0.029378228
        tangentMode: 0
      - serializedVersion: 2
        time: 3.8000007
        value: 0.89463013
        inSlope: -0.027489223
        outSlope: -0.027489223
        tangentMode: 0
      - serializedVersion: 2
        time: 4.0000005
        value: 0.8893599
        inSlope: -0.024815373
        outSlope: -0.024815373
        tangentMode: 0
      - serializedVersion: 2
        time: 4.2000003
        value: 0.884704
        inSlope: -0.021342358
        outSlope: -0.021342358
        tangentMode: 0
      - serializedVersion: 2
        time: 4.4
        value: 0.88082296
        inSlope: -0.017075108
        outSlope: -0.017075108
        tangentMode: 0
      - serializedVersion: 2
        time: 4.6
        value: 0.87787396
        inSlope: -0.01204164
        outSlope: -0.01204164
        tangentMode: 0
      - serializedVersion: 2
        time: 4.7999997
        value: 0.8760063
        inSlope: -0.006294253
        outSlope: -0.006294253
        tangentMode: 0
      - serializedVersion: 2
        time: 5
        value: 0.87535626
        inSlope: -0.0032502366
        outSlope: -0.0032502366
        tangentMode: 0
      m_PreInfinity: 2
      m_PostInfinity: 2
      m_RotationOrder: 4
    attribute: m_LocalRotation.w
    path: 
    classID: 4
    script: {fileID: 0}
  m_EulerEditorCurves:
  - curve:
      serializedVersion: 2
      m_Curve:
      - serializedVersion: 2
        time: 0
        value: 20.28
        inSlope: 0
        outSlope: 0
        tangentMode: 136
      - serializedVersion: 2
        time: 5
        value: 13.200001
        inSlope: 0
        outSlope: 0
        tangentMode: 136
      m_PreInfinity: 2
      m_PostInfinity: 2
      m_RotationOrder: 4
    attribute: localEulerAnglesBaked.x
    path: 
    classID: 4
    script: {fileID: 0}
  - curve:
      serializedVersion: 2
      m_Curve:
      - serializedVersion: 2
        time: 0
        value: -20.901001
        inSlope: 0
        outSlope: 0
        tangentMode: 136
      - serializedVersion: 2
        time: 5
        value: -56.426003
        inSlope: 0
        outSlope: 0
        tangentMode: 136
      m_PreInfinity: 2
      m_PostInfinity: 2
      m_RotationOrder: 4
    attribute: localEulerAnglesBaked.y
    path: 
    classID: 4
    script: {fileID: 0}
  - curve:
      serializedVersion: 2
      m_Curve:
      - serializedVersion: 2
        time: 0
        value: 0
        inSlope: 0
        outSlope: 0
        tangentMode: 136
      - serializedVersion: 2
        time: 5
        value: 0
        inSlope: 0
        outSlope: 0
        tangentMode: 136
      m_PreInfinity: 2
      m_PostInfinity: 2
      m_RotationOrder: 4
    attribute: localEulerAnglesBaked.z
    path: 
    classID: 4
    script: {fileID: 0}
  m_HasGenericRootTransform: 0
  m_HasMotionFloatCurves: 0
  m_GenerateMotionCurves: 0
  m_Events: []
