%YAML 1.1
%TAG !u! tag:unity3d.com,2011:
--- !u!687078895 &4343727234628468602
SpriteAtlas:
  m_ObjectHideFlags: 0
  m_CorrespondingSourceObject: {fileID: 0}
  m_PrefabInstance: {fileID: 0}
  m_PrefabAsset: {fileID: 0}
  m_Name: Panel
  m_EditorData:
    serializedVersion: 2
    textureSettings:
      serializedVersion: 2
      anisoLevel: 1
      compressionQuality: 50
      maxTextureSize: 2048
      textureCompression: 0
      filterMode: 1
      generateMipMaps: 0
      readable: 0
      crunchedCompression: 0
      sRGB: 1
    platformSettings:
    - serializedVersion: 3
      m_BuildTarget: WebGL
      m_MaxTextureSize: 2048
      m_ResizeAlgorithm: 0
      m_TextureFormat: 29
      m_TextureCompression: 1
      m_CompressionQuality: 50
      m_CrunchedCompression: 0
      m_AllowsAlphaSplitting: 0
      m_Overridden: 1
      m_AndroidETC2FallbackOverride: 0
      m_ForceMaximumCompressionQuality_BC6H_BC7: 0
    packingSettings:
      serializedVersion: 2
      padding: 4
      blockOffset: 1
      allowAlphaSplitting: 0
      enableRotation: 1
      enableTightPacking: 0
    secondaryTextureSettings: {}
    variantMultiplier: 1
    packables:
    - {fileID: 2800000, guid: 4ecee6020fcec3143aea931a771b8d2e, type: 3}
    - {fileID: 2800000, guid: e2dc9c5f3cb7191438803c1858df2679, type: 3}
    - {fileID: 2800000, guid: 1f92f4d0f46cbfb4bbc8e582583cd5d6, type: 3}
    - {fileID: 2800000, guid: 1ecaf67991356ce449d10bc52d7ed87b, type: 3}
    - {fileID: 2800000, guid: d4efbdbccb5ac744c8c183af3a1eeb5f, type: 3}
    - {fileID: 2800000, guid: ba86e6915dce7c843954b07232b0eba4, type: 3}
    - {fileID: 21300000, guid: ba86e6915dce7c843954b07232b0eba4, type: 3}
    - {fileID: 2800000, guid: c1e5584ec2c38a844b39c1294176ed0a, type: 3}
    totalSpriteSurfaceArea: 4772449
    bindAsDefault: 1
    isAtlasV2: 0
    cachedData: {fileID: 0}
  m_MasterAtlas: {fileID: 0}
  m_PackedSprites:
  - {fileID: 21300000, guid: 1f92f4d0f46cbfb4bbc8e582583cd5d6, type: 3}
  - {fileID: 21300000, guid: ba86e6915dce7c843954b07232b0eba4, type: 3}
  - {fileID: 21300000, guid: 4ecee6020fcec3143aea931a771b8d2e, type: 3}
  - {fileID: 21300000, guid: 1ecaf67991356ce449d10bc52d7ed87b, type: 3}
  - {fileID: 21300000, guid: d4efbdbccb5ac744c8c183af3a1eeb5f, type: 3}
  - {fileID: 21300000, guid: c1e5584ec2c38a844b39c1294176ed0a, type: 3}
  - {fileID: 21300000, guid: e2dc9c5f3cb7191438803c1858df2679, type: 3}
  m_PackedSpriteNamesToIndex:
  - BANNER DE TEXTO PANEL (BIENVENIDO...)-01
  - BARRA DE CARGANDO VACIA-01
  - PLAY BUTOM
  - BOTON SIGUIENTE-01
  - BOTON SIGUIENTE-02-01
  - SLIDE
  - LOGO
  m_RenderDataMap: {}
  m_Tag: Panel
  m_IsVariant: 0
